SynchronousFIFO/SyncFIFO.vcd
$date
	Mon Sep 08 18:59:19 2025
$end
$version
	Icarus Verilog
$end
$timescale
	1s
$end
$scope module SyncFIFO_tb $end
$var wire 8 ! data_out [7:0] $end
$var wire 1 " Full $end
$var wire 1 # Empty $end
$var parameter 32 $ Depth $end
$var parameter 32 % Width $end
$var reg 1 & clk $end
$var reg 8 ' data_in [7:0] $end
$var reg 1 ( rd_en $end
$var reg 1 ) reset $end
$var reg 1 * wr_en $end
$var integer 32 + i [31:0] $end
$scope module DUT $end
$var wire 1 & clk $end
$var wire 8 , data_in [7:0] $end
$var wire 1 ( rd_en $end
$var wire 1 ) reset $end
$var wire 1 * wr_en $end
$var wire 1 " Full $end
$var wire 1 # Empty $end
$var parameter 32 - Depth $end
$var parameter 32 . Width $end
$var reg 5 / count [4:0] $end
$var reg 8 0 data_out [7:0] $end
$var reg 4 1 rd_ptr [3:0] $end
$var reg 4 2 wr_ptr [3:0] $end
$upscope $end
$upscope $end
$enddefinitions $end
$comment Show the parameter values. $end
$dumpall
b1000 .
b1010 -
b1000 %
b1010 $
$end
#0
$dumpvars
bx 2
bx 1
bx 0
bx /
b0 ,
bx +
0*
1)
0(
b0 '
0&
x#
x"
bx !
$end
#5
b0 !
b0 0
0"
1#
b0 /
b0 1
b0 2
1&
#10
0&
b0 +
0)
#15
0#
b1 /
b1 2
b1 +
b100100 '
b100100 ,
1*
1&
#20
0&
#25
b10 /
b10 2
b10 +
b10000001 '
b10000001 ,
1&
#30
0&
#35
b11 /
b11 2
b11 +
b1001 '
b1001 ,
1&
#40
0&
#45
b100 /
b100 2
b100 +
b1100011 '
b1100011 ,
1&
#50
0&
#55
b101 /
b101 2
b101 +
b1101 '
b1101 ,
1&
#60
0&
#65
b110 /
b110 2
b110 +
b10001101 '
b10001101 ,
1&
#70
0&
#75
b111 /
b111 2
b111 +
b1100101 '
b1100101 ,
1&
#80
0&
#85
b1000 /
b1000 2
b1000 +
b10010 '
b10010 ,
1&
#90
0&
#95
b1001 /
b1001 2
b1001 +
b1 '
b1 ,
1&
#100
0&
#105
1"
b1010 /
b0 2
b1010 +
b1101 '
b1101 ,
1&
#110
0&
#115
b0 +
0*
1&
#120
0&
#125
1(
1&
#126
b1 +
#130
0&
#135
0"
b1001 /
b1 1
b100100 !
b100100 0
1&
#136
b10 +
#140
0&
#145
b1000 /
b10 1
1&
#146
b11 +
#150
0&
#155
b111 /
b11 1
b1001 !
b1001 0
1&
#156
b100 +
#160
0&
#165
b110 /
b100 1
1&
#166
b101 +
#170
0&
#175
b101 /
b101 1
b1101 !
b1101 0
1&
#176
b110 +
#180
0&
#185
b100 /
b110 1
1&
#186
b111 +
#190
0&
#195
b11 /
b111 1
b1100101 !
b1100101 0
1&
#196
b1000 +
#200
0&
#205
b10 /
b1000 1
1&
#206
b1001 +
#210
0&
#215
b1 /
b1001 1
b1 !
b1 0
1&
#216
b1010 +
#220
0&
#225
0(
1&
